Mike	22:25 3/6/2004	130
Jim	22:25 3/6/2004	113
Tom	22:25 3/6/2004	105
Lana	22:25 3/6/2004	130
TomH	22:25 3/6/2004	125
Mike	22:26 3/6/2004	153
TomH	22:26 3/6/2004	174
Mike	23:17 1/6/2019	108
Jim	23:17 1/6/2019	153
Jim	23:19 1/6/2019	162
Lana	23:19 1/6/2019	128
Tom	23:20 1/6/2019	103
TomH	23:20 1/6/2019	101
Lana	23:20 1/6/2019	138
Mike	23:20 1/6/2019	141
Jim	23:20 1/6/2019	126
Lana	23:20 1/6/2019	124
Tom	23:21 1/6/2019	132
TomH	23:21 1/6/2019	141
Tom	23:21 1/6/2019	136
TomH	23:21 1/6/2019	136
Mike	23:24 1/6/2019	158
Jim	23:24 1/6/2019	132
Jim	15:57 1/0/2019	112
Lana	15:57 1/0/2019	138
TomH	0:59 1/1/2019	159
Lana	0:59 1/1/2019	128
TomH	1:0 1/1/2019	208
Lana	1:0 1/1/2019	115
Mike	1:2 1/1/2019	111
TomH	1:2 1/1/2019	95
Lana	1:2 1/1/2019	129
Mike	1:3 1/1/2019	123
Jim	1:3 1/1/2019	119
TomH	1:4 1/1/2019	162
Lana	1:4 1/1/2019	149
Mike	1:6 1/1/2019	135
Jim	1:6 1/1/2019	124
TomH	1:6 1/1/2019	132
Lana	1:6 1/1/2019	97
Mike	1:12 1/1/2019	112
Jim	1:12 1/1/2019	166
TomH	1:12 1/1/2019	137
Lana	1:13 1/1/2019	164
Mike	1:15 1/1/2019	115
Jim	1:15 1/1/2019	117
TomH	1:15 1/1/2019	134
Lana	1:15 1/1/2019	96
Mike	1:22 1/1/2019	148
Jim	1:22 1/1/2019	123
TomH	1:22 1/1/2019	122
Lana	1:22 1/1/2019	77
Mike	2:13 1/1/2019	130
Jim	2:13 1/1/2019	161
TomH	2:13 1/1/2019	176
Lana	2:14 1/1/2019	114
Mike	2:15 1/1/2019	143
Jim	2:15 1/1/2019	110
Mike	3:11 1/1/2019	115
Jim	3:11 1/1/2019	149
Mike	22:3 2/6/2019	150
Tom	22:3 2/6/2019	150
Lana	22:3 2/6/2019	165
Mike	23:13 2/6/2019	109
Lana	23:13 2/6/2019	89
Tom	23:13 2/6/2019	145
Mike	0:10 2/1/2019	103
Jim	0:10 2/1/2019	109
Lana	0:10 2/1/2019	149
Jim	0:13 2/1/2019	96
Mike	0:13 2/1/2019	145
Tom	0:13 2/1/2019	135
Mike	0:15 2/1/2019	135
Tom	0:15 2/1/2019	142
Jim	0:15 2/1/2019	129
Mike	0:25 2/1/2019	127
Jim	0:25 2/1/2019	124
Tom	0:25 2/1/2019	120
Mike	0:30 2/1/2019	128
Mike	0:32 2/1/2019	108
Mike	1:38 2/1/2019	146
Mike	1:42 2/1/2019	170
Mike	1:44 2/1/2019	124
Mike	11:15 2/1/2019	38
Lana	11:23 2/1/2019	54
